,2,3,4,5
3,0.023240957454811605,0.02324588680649504,0.023251501155632192,0.02324684818773191
4,0.023240465977898625,0.023245953908235854,0.02323900446057682,0.02325088606571899
5,0.023241053886659625,0.02324587511248147,0.02323900608297761,0.023246886187282174
6,0.02324051381286846,0.023247439310956873,0.023239014992057425,0.023246839035591202
7,0.023240553989337692,0.023247351587045904,0.023238996867548663,0.0232468414036797
8,0.023240529031799774,0.023247407416895873,0.02323901127728369,0.0232468480585743
