,2,3,4,5
3,8.704072926438806e-05,8.727106092518578e-05,8.655849281014369e-05,8.666844541983104e-05
4,8.637968317520665e-05,8.650185025507908e-05,8.666075554589198e-05,8.635454486101971e-05
5,8.763683606668408e-05,8.661264963916984e-05,8.651607888280081e-05,8.630813590128887e-05
6,8.73377353670904e-05,8.658496737006422e-05,8.654376700542466e-05,8.635498665064922e-05
7,8.741207484110535e-05,8.659786921967827e-05,8.646916004575582e-05,8.739203350852207e-05
8,8.73379896193494e-05,8.660800095234368e-05,8.655953913286961e-05,8.739098619320036e-05
