,2,3,4,5
3,0.2,0.1903125,0.18070312500000002,0.17289062500000002
4,0.2,0.1903125,0.18070312500000002,0.17289062500000002
5,0.2,0.1903125,0.18070312500000002,0.1728984375
6,0.2,0.1903125,0.18070312500000002,0.1728984375
7,0.2,0.1903125,0.18070312500000002,0.1728984375
8,0.2,0.1903125,0.18070312499999996,0.1728984375
