5.000000000000000000e+00 8.094982096057292686e-01 4.226814351909097267e-02
1.000000000000000000e+04 5.401230716061709014e-01 6.159582550096446944e-05
2.000000000000000000e+04 2.434744208818531708e-01 7.063716948452593639e-05
3.000000000000000000e+04 9.983488052838231097e-02 7.680792174782361469e-05
4.000000000000000000e+04 3.950387358760452244e-02 8.078391365935482687e-05
5.000000000000000000e+04 1.581594938896195568e-02 8.293472786217401813e-05
6.000000000000000000e+04 6.292779863104437828e-03 8.447253927136013849e-05
7.000000000000000000e+04 2.371192412184280895e-03 8.634803318367695085e-05
8.000000000000000000e+04 1.027196712970518530e-03 8.601152281279322083e-05
9.000000000000000000e+04 3.311989401633914703e-04 8.903101483831165903e-05
1.000000000000000000e+05 1.919993856019660639e-04 8.558018385931372336e-05
