5.000000000000000000e+00 9.938944781506796611e-01 1.224847352588122589e-03
5.000000000000000000e+01 7.136740649719683915e-01 6.746578250049550980e-03
1.000000000000000000e+02 2.321442285538745098e-01 1.460396425674372230e-02
1.500000000000000000e+02 6.105521849320328515e-02 1.863984402049597561e-02
2.000000000000000000e+02 1.542526025566687276e-02 2.085874418502268318e-02
2.500000000000000000e+02 4.331514455661497100e-03 2.176735215722326242e-02
3.000000000000000000e+02 1.079038618830567998e-03 2.277228267343357759e-02
3.500000000000000000e+02 3.359995699205504970e-04 2.285257336571500097e-02
4.000000000000000000e+02 1.171198500865918866e-04 2.263078196937613404e-02
4.500000000000000000e+02 1.151998525441887379e-05 2.526983818376824301e-02
5.000000000000000000e+02 5.183997345793358848e-06 2.433986822182834103e-02
